<?xml version="1.0" encoding="iso-8859-1"?>
<!-- Generator: Adobe Illustrator 16.0.0, SVG Export Plug-In . SVG Version: 6.00 Build 0)  -->
<!DOCTYPE svg PUBLIC "-//W3C//DTD SVG 1.1//EN" "http://www.w3.org/Graphics/SVG/1.1/DTD/svg11.dtd">
<svg version="1.1" id="Capa_1" xmlns="http://www.w3.org/2000/svg" xmlns:xlink="http://www.w3.org/1999/xlink" x="0px" y="0px"
	 width="47.001px" height="47.001px" viewBox="0 0 47.001 47.001" style="enable-background:new 0 0 47.001 47.001;"
	 xml:space="preserve">
<g>
	<g id="Layer_1_30_">
		<g>
			<path d="M34.658,22.375c-0.089,0.09-0.172,0.185-0.261,0.273c-1.138,1.137-2.32,2.035-3.485,2.759
				c1.608,2.37,2.812,4.805,3.485,7.163c1.02,3.561,0.685,6.521-0.917,8.124c-0.996,0.995-2.455,1.502-4.337,1.502
				c-4.782,0-10.932-3.18-16.046-8.296C5.088,25.891,3.087,16.729,6.3,13.514c0.996-0.996,2.455-1.5,4.337-1.5
				c3.268,0,7.175,1.485,10.954,4.059c0.726-1.161,1.621-2.342,2.755-3.476c0.091-0.092,0.188-0.177,0.279-0.267
				c-4.687-3.266-9.634-5.122-13.988-5.122c-3.157,0-5.831,1.006-7.734,2.909c-5.715,5.715-2.729,17.653,6.797,27.18
				c6.074,6.077,13.344,9.704,19.443,9.704c3.156,0,5.831-1.007,7.733-2.909c2.914-2.914,3.675-7.475,2.14-12.843
				C38.176,28.3,36.673,25.273,34.658,22.375z"/>
			<path d="M14.691,15.647c-1.678,0-2.717,0.688-3.294,1.264c-0.894,0.894-2.13,2.992-0.363,7.008c1,2.272,2.788,4.758,5.035,7.006
				c3.66,3.662,7.769,5.937,10.721,5.937c1.678,0,2.717-0.688,3.293-1.263c0.894-0.895,2.132-2.993,0.365-7.009
				c-0.322-0.729-0.732-1.481-1.205-2.242c-3.588,1.782-6.611,1.944-6.794,1.954c-1.008,0.042-1.992-0.343-2.704-1.054
				c-0.711-0.711-1.095-1.696-1.051-2.701c0.008-0.185,0.167-3.203,1.945-6.786C18.479,16.422,16.393,15.647,14.691,15.647z"/>
			<path d="M46.961,7.708c-0.103-0.406-0.406-0.733-0.81-0.857l-4.572-1.435l-1.435-4.575c-0.126-0.4-0.453-0.706-0.859-0.807
				c-0.408-0.1-0.84,0.021-1.138,0.317l-4.169,4.17c-0.282,0.283-0.407,0.688-0.329,1.081l0.515,2.613
				c-2.434,1.178-5.508,3.468-8.119,6.078c-4.655,4.656-4.941,10.123-4.951,10.354c-0.014,0.336,0.113,0.662,0.351,0.9
				c0.239,0.236,0.564,0.365,0.901,0.351c0.231-0.01,5.698-0.296,10.354-4.951c2.608-2.612,4.899-5.688,6.076-8.119l2.615,0.514
				c0.394,0.078,0.797-0.046,1.08-0.329l4.17-4.17C46.938,8.548,47.061,8.118,46.961,7.708z"/>
		</g>
	</g>
</g>
<g>
</g>
<g>
</g>
<g>
</g>
<g>
</g>
<g>
</g>
<g>
</g>
<g>
</g>
<g>
</g>
<g>
</g>
<g>
</g>
<g>
</g>
<g>
</g>
<g>
</g>
<g>
</g>
<g>
</g>
</svg>
