<?xml version="1.0" encoding="utf-8"?>
<!-- Generator: Adobe Illustrator 22.0.0, SVG Export Plug-In . SVG Version: 6.00 Build 0)  -->
<svg version="1.1" id="_x31_" xmlns="http://www.w3.org/2000/svg" xmlns:xlink="http://www.w3.org/1999/xlink" x="0px" y="0px"
	 viewBox="0 0 450 450" enable-background="new 0 0 450 450" xml:space="preserve">
<g display="none">
	<path display="inline" fill-rule="evenodd" clip-rule="evenodd" fill="#E5E5E5" d="M72.8,426.3c26,0,47.1-21.2,47.1-47.1
		S98.8,332,72.8,332c-26,0-47.1,21.2-47.1,47.1S46.8,426.3,72.8,426.3z"/>
	<path display="inline" fill-rule="evenodd" clip-rule="evenodd" d="M54.4,356.9h22.9c11,0,19.9,9,19.9,19.9
		c0,10.9-9,19.9-19.9,19.9H54.4V356.9z"/>
	<polygon display="inline" fill-rule="evenodd" clip-rule="evenodd" points="54.4,381.8 74,386.5 54.4,407.7 	"/>
	<polygon display="inline" fill="#FFFFFF" points="74.5,370.1 66.8,376.4 66.8,369.4 61.8,365.3 61.8,387 74.5,376.6 75.4,374.1 	
		"/>
	<polygon display="inline" fill="#FFFFFF" points="74.5,370.1 82.2,376.4 82.2,369.4 87.2,365.3 87.2,387 74.5,376.6 	"/>
</g>
<g display="none">
	<circle display="inline" fill-rule="evenodd" clip-rule="evenodd" cx="366.7" cy="367.6" r="58.6"/>
	<path display="inline" fill-rule="evenodd" clip-rule="evenodd" fill="#FFFFFF" d="M343.9,339.9h28.4c13.6,0,24.8,11.1,24.8,24.8
		c0,13.6-11.2,24.8-24.8,24.8h-28.4V339.9z"/>
	<polygon display="inline" fill-rule="evenodd" clip-rule="evenodd" fill="#FFFFFF" points="343.9,370.9 368.3,376.9 343.9,403.2 	
		"/>
	<polygon display="inline" points="368.8,356.4 359.3,364.3 359.3,355.5 353.1,350.4 353.1,377.4 368.8,364.4 370,361.4 	"/>
	<polygon display="inline" points="368.8,356.4 378.4,364.3 378.4,355.5 384.6,350.4 384.6,377.4 368.8,364.4 	"/>
</g>
<g>
	<path fill-rule="evenodd" clip-rule="evenodd" fill="#00AAD1" d="M106,34.8h124c59.4,0,108,48.6,108,108c0,59.1-48.9,108-108,108
		H106V34.8z"/>
	<polygon fill-rule="evenodd" clip-rule="evenodd" fill="#00AAD1" points="106,169.7 212.3,195.7 106,310.5 	"/>
	<polygon fill="#ACDBDF" points="214.8,106.6 173.1,141 173.1,102.8 146,80.5 146,198.2 214.8,141.5 219.9,128.4 	"/>
	<polygon fill="#FFFFFF" points="214.8,106.6 256.5,141 256.5,102.8 283.6,80.5 283.6,198.2 214.8,141.5 	"/>
</g>
<text transform="matrix(1 0 0 1 96.5486 388.0468)" fill="#FFFFFF" font-family="'Pasajero'" font-size="47.5705px">DOOP WEB</text>
<text transform="matrix(1 0 0 1 483.3877 359.752)" font-family="'MyriadPro-Regular'" font-size="12px">Lorem ipsum</text>
</svg>
